{
  "firstName": "Delara",

  "lastName": "Mohammadi",
  "title": "React Native Developer",
  "location": "Sarajevo",
  "bio": "Lorem ipsum dolor sit amet, consectetur adipiscing elit, sed de eiusmod tempor incididunt ut labore et dolore magna aliqua. Ut enim ad minim veniam, quis nostrud exercitation ullamco laboris nisi ut aliquip ex ea commodo consequat. Duis aute irure dolor in reprehenderit in voluptate velit esse cillum dolore eu fugiat nulla pariatur.",
  "experiences": [
    {
      "id": 1,
      "title": "React Native Developer",
      "datePeriod": "20-01-2019 -  08-07-2021",
      "company": "InfoStudio d.o.o."
    },
    {
      "id": 2,
      "title": "React Developer",
      "datePeriod": "20-01-2016 -  08-07-2018",
      "company": "MOP d.o.o."
    }
  ],
  "educations": [
    {
      "id": 1,
      "institution": "Druga gimnazija Sarajevo",
      "degree": "IB DP",
      "areaOfStudy": "Computer Science",
      "datePeriod": "20-01-2016 -  08-07-2018"
    },
    {
      "id": 2,
      "institution": "SSST",
      "degree": "Bachelor",
      "areaOfStudy": "Computer Science",
      "datePeriod": "20-01-2018 -  08-07-2020"
    }
  ],
  "languages": [
    { "id": 1, "language": "English", "proficiency": "Billingual" },
    { "id": 2, "language": "German", "proficiency": "B.1.1." },
    { "id": 3, "language": "Bosnian", "proficiency": "Native" }
  ],
  "skills": [
    { "id": 1, "skill": "React JS" },
    { "id": 2, "skill": "React Native" },
    { "id": 3, "skill": "Figma" }
  ]
}
